694795 918313
554503 322837
110263 3045
425679 572681
859965 652527
200271 328593
443154 823826
28257 945343
417708 126111
967461 235028
11576 813411
259670 951502
577367 61221
760183 884269
106847 269961
19854 949529
94655 604088
177163 676024
395082 886345
999751 497391
360985 458376
589488 808035
980545 880769
934548 184716
245680 360273
129086 938666
402010 218862
79538 935029
387751 478833
875830 910340
743684 686922
642007 214684
833740 30902
958166 309882
339542 473864
3915 115578
346343 83017
706484 56554
982150 999928
14465 255864
662651 894377
733551 663586
326341 654161
872154 453463
375154 617113
83 222434
939476 287303
42227 283709
999343 162939
524996 874072
648110 994723
484277 210165
154632 63201
505214 245069
536351 376414
526944 163408
979431 441902
273338 94850
77849 492296
296927 750688
309374 458948
732267 489582
186220 916601
537281 178060
82273 39375
796896 107282
247996 675326
334638 673002
201737 902444
387707 995270
756386 616013
909910 346474
615474 633704
615637 269502
486959 467286
817355 970585
690057 687740
209335 272186
417977 388325
544481 46207
614916 517631
402595 559785
117639 705746
90364 231963
531108 803984
805703 299522
56850 844679
499512 248039
329232 281676
873359 484624
114214 178446
516181 938995
853349 189058
499459 371266
956493 447623
51433 508116
242781 29544
301756 518886
639011 26761
836773 390708
707389 944907
221621 840102
426698 186550
246053 853541
528329 448003
702880 6870
264244 436770
277000 888484
135038 52771
151205 491812
572160 208569
623032 393456
186078 447425
644447 68698
237866 74725
853742 876586
794387 620485
662532 963053
942122 346011
499882 703843
479790 906964
188421 793294
668912 62853
130717 342061
348551 905766
190585 144904
949789 119077
871347 914447
194928 416026
905605 801053
877985 303385
426175 415432
102605 324578
574399 136130
260802 591610
111517 497553
396112 977646
443957 237511
536665 355049
168108 228094
649666 900210
12003 818288
982978 229109
303844 224764
81457 229917
345744 591851
963414 472169
964108 199488
325481 277264
429519 182417
714630 905800
922857 69326
451519 854058
117562 428982
623468 158360
5494 115075
728119 309952
495911 5174
392599 106880
130444 137358
794806 169181
559456 270556
899125 783907
964931 936777
50535 685198
246916 804840
740622 201091
612533 645280
319982 196628
149931 449999
686763 859308
138023 465639
455229 678481
455837 447891
326242 553837
207210 672678
662145 715819
824511 945589
720147 475998
845621 673398
61453 10495
438145 960742
551061 695017
848858 230496
535237 737324
177187 362758
744678 335943
725897 699079
294385 666011
44189 348705
16704 783822
931053 696767
618965 686265
301298 189248
757338 834522
949847 196334
498642 593030
495960 92748
594492 466964
117709 846480
