71253 503951
854076 694362
413423 861698
779589 521232
928289 159611
779805 358084
872100 583712
760322 372791
303715 687530
177821 111701
996524 59884
606443 582804
448630 335964
323428 409454
770735 370257
802114 263174
457069 101971
304306 230931
82451 950430
532520 471291
807219 127532
972605 610474
942791 745300
680425 231687
830564 696264
144595 511160
797095 283746
936232 795937
37505 299963
182487 536507
62325 349617
301609 750817
153961 850083
356561 461975
754382 652552
199705 588831
606592 126571
98152 849001
840153 1258
190962 779933
618538 556798
141666 411640
919363 662039
629421 584218
685487 88973
541202 18225
649590 267179
354426 848351
853415 104105
273904 950850
357487 987908
404580 312130
484695 655440
732045 750316
103489 89042
246092 635858
697481 587161
158629 948966
177428 125693
84970 920308
758335 153959
443725 590583
697262 723018
731488 815956
710093 746929
871866 527253
464379 564631
271524 904144
785470 562637
983039 369883
437681 153656
749140 147953
992477 925317
509666 768490
144069 882695
334668 250316
222249 825591
604195 113292
869446 480782
67966 292377
667965 485981
257235 61671
237813 684837
498279 307057
322705 388206
346602 981436
496732 138072
549454 972500
490394 654886
103530 901947
603898 400203
894625 276059
727562 481586
410857 287375
236035 688522
232848 601039
901380 163042
588118 350718
111917 439093
551210 595419
338169 383983
731199 241525
774840 485175
901638 46491
99851 198129
949466 380449
653913 731420
303956 510284
365427 557055
417439 140587
616913 407785
238073 66582
458543 788277
65395 281279
61541 270288
422590 681922
667840 104647
599809 103944
955956 609889
484284 739850
710733 547757
889715 911154
257981 259325
163456 539065
861981 947906
936968 737384
889482 465929
687530 74650
612912 647914
630894 254826
609959 382200
715079 624946
920201 917728
677888 127257
889026 407143
880059 221929
494003 223410
512279 258731
811110 142601
44195 945643
464812 290492
225777 189689
706909 956303
606572 291218
558827 580987
858808 243400
803508 577672
551656 363258
812390 253441
165802 879245
601282 801066
958302 866421
153399 963124
197589 26517
89085 105676
721677 669773
954865 719076
611071 479019
361163 280658
519160 224711
158276 101133
341673 10711
946269 897474
334381 772076
106900 556856
868345 723746
826856 576016
430204 316483
212789 648405
685858 91503
266102 912274
777700 966008
80504 421023
310302 836733
311565 817903
955350 892259
413110 941697
614085 342304
554055 877450
334734 357758
873605 518271
280621 554663
81927 800612
38807 374194
877713 718346
776195 733185
437715 556775
107514 753766
972242 972981
958782 195956
296098 958942
279360 943235
995933 585880
875018 646734
191431 646422
759614 304817
866582 925219
647417 866936
612929 53078
914093 360428
532565 276436
553923 364065
509321 588474
2710 985652
711241 230251
938340 749553
537106 27374
491092 335196
518448 306101
109231 357580
103973 179791
598306 406506
586732 789018
170120 389040
790918 112886
175928 422660
999221 388633
822585 920172
62036 882133
914844 862345
651781 870993
154934 170834
126109 630867
891415 277501
504158 863262
