234483 871679
713781 485404
310255 333814
513806 9138
768375 840527
274532 952740
635524 657660
301380 74150
884793 500854
700947 21451
680403 76549
723330 662259
387867 990699
517982 561478
927382 663863
799988 216693
563745 549631
862813 952242
917270 645056
786839 304634
631094 751752
339472 123678
871762 311149
795018 102966
851520 820397
949882 586993
51414 526194
551772 589473
733872 423406
194219 113608
902133 303022
869869 623870
652463 34880
368246 318301
593448 867617
564123 18285
948551 162284
744557 640365
210584 199361
72642 404249
564163 98984
499545 959432
504386 536987
907520 427518
102605 35693
890590 333660
578414 663962
21346 510616
909157 354070
610734 450969
84792 856612
603479 716847
729474 13771
800793 261904
491578 805269
895910 47282
533482 500678
817398 83554
818304 86003
780087 362183
958239 550136
988839 658696
597137 188978
354550 702952
89758 927170
41380 49880
216125 474537
906165 380446
253192 839389
710706 139448
984362 82628
951891 2683
489895 425405
303011 567423
235911 124483
117581 168783
352315 357807
326518 48933
803878 125591
610250 158444
66576 260920
391095 862342
981272 520548
731363 412892
456422 810222
284280 221471
833443 452204
376764 366111
238150 898996
55818 139697
924811 522901
669113 899441
131603 537580
136551 645552
168650 746916
543614 427961
47201 263651
47590 894554
583324 161732
430583 726802
480371 694005
733208 793276
601541 106817
603694 595150
86144 760086
636076 617617
930035 90272
402488 792996
434663 545251
894565 659726
216565 624332
29028 309470
860481 233190
887143 93754
32922 703023
80493 477103
358909 870491
115667 367957
836739 783932
381035 400807
245067 145227
85792 451325
73330 259646
112879 210352
207568 6271
481256 948899
34151 857224
161906 133342
681707 487466
251114 46112
371855 926294
149637 334184
527396 242124
335378 535240
67016 824119
296379 920142
789145 167306
589998 262809
85641 795772
365704 721893
199128 572645
744464 873403
143213 329161
856483 15051
84058 490354
247151 899506
903685 837575
305835 664872
916780 913991
285864 995412
568720 805841
30468 823863
908554 444266
482969 933794
897680 899435
506250 995765
169888 605142
500309 87177
612111 738939
825530 972114
891228 572470
714392 379936
943256 237631
943717 952030
434946 899023
882836 838050
657885 268028
88085 927387
133837 677257
311395 302288
797899 347902
515942 538003
609787 133347
824393 835972
750479 941554
313189 77774
79658 357206
296147 184911
432811 981984
720062 223592
978011 78713
415096 916478
906727 144821
804698 929815
336075 952225
874052 871728
629163 885797
179476 459803
804468 251980
159183 555895
528960 618468
95318 49650
218989 398012
401737 4817
396581 902301
90837 264925
444200 59719
351256 800594
840921 882793
47244 213456
185535 497467
628760 585486
215025 476401
739417 263524
431038 138030
736665 707878
762202 726370
308133 778753
